<?xml version="1.0" encoding="UTF-8" standalone="no"?>
<!-- Created with Inkscape (http://www.inkscape.org/) -->

<svg
   width="32"
   height="32"
   viewBox="0 0 8.4666664 8.4666669"
   version="1.1"
   id="svg5"
   inkscape:version="1.3.2 (091e20ef0f, 2023-11-25, custom)"
   sodipodi:docname="prev.svg"
   xmlns:inkscape="http://www.inkscape.org/namespaces/inkscape"
   xmlns:sodipodi="http://sodipodi.sourceforge.net/DTD/sodipodi-0.dtd"
   xmlns="http://www.w3.org/2000/svg"
   xmlns:svg="http://www.w3.org/2000/svg">
  <sodipodi:namedview
     id="namedview7"
     pagecolor="#ffffff"
     bordercolor="#666666"
     borderopacity="1.0"
     inkscape:pageshadow="2"
     inkscape:pageopacity="0.0"
     inkscape:pagecheckerboard="true"
     inkscape:document-units="px"
     showgrid="false"
     units="px"
     width="16px"
     inkscape:zoom="17.733857"
     inkscape:cx="15.422477"
     inkscape:cy="5.7517099"
     inkscape:window-width="2560"
     inkscape:window-height="1552"
     inkscape:window-x="0"
     inkscape:window-y="48"
     inkscape:window-maximized="1"
     inkscape:current-layer="layer1"
     inkscape:showpageshadow="2"
     inkscape:deskcolor="#d1d1d1" />
  <defs
     id="defs2" />
  <g
     inkscape:label="prev"
     inkscape:groupmode="layer"
     id="layer1">
    <g
       id="g1"
       transform="matrix(0.60476211,0,0,0.60476219,-7.040431,-167.24447)">
      <g
         id="left-arrow"
         transform="rotate(90,26.141651,276.04584)">
        <rect
           transform="rotate(-90)"
           y="26.641653"
           x="-290.54584"
           height="13.999993"
           width="13.999995"
           id="rect4241-6-7-6-2-9"
           style="fill:none;fill-opacity:1;stroke:none;stroke-width:0.0374177;stroke-linecap:square;stroke-linejoin:miter;stroke-miterlimit:4;stroke-dasharray:none;stroke-dashoffset:0;stroke-opacity:1" />
        <path
           d="m 33.64165,285.78151 -4,-4 0.471334,-0.47134 3.528666,3.52867 3.528666,-3.52867 0.471334,0.47134 z"
           class="ColorScheme-Text"
           fill="currentColor"
           id="path3-2-5-2-7-3"
           style="color:#ffffff;fill:currentColor;stroke-width:0.8;stop-color:#ffffff" />
      </g>
    </g>
  </g>
</svg>
